<!-- Generated by IcoMoon.io -->
<svg version="1.1" xmlns="http://www.w3.org/2000/svg" width="32" height="32" viewBox="0 0 32 32">
<title>add-document-color</title>
<path fill="#8ea4d2" d="M32 16c0 8.837-7.163 16-16 16s-16-7.163-16-16c0-8.837 7.163-16 16-16s16 7.163 16 16z"></path>
<path fill="#fff" d="M19.969 18.489v-1.506h-1.506c-0.485 0-0.879-0.393-0.879-0.879s0.393-0.879 0.879-0.879v0h1.506v-1.506c0-0.485 0.393-0.879 0.879-0.879s0.879 0.393 0.879 0.879v0 1.506h1.506c0.485 0 0.879 0.393 0.879 0.879s-0.393 0.879-0.879 0.879v0h-1.506v1.506c0 0.485-0.393 0.879-0.879 0.879s-0.879-0.393-0.879-0.879v0z"></path>
<path fill="#fff" d="M8.617 11.268c-0.526 0.002-0.951 0.428-0.951 0.954 0 0.001 0 0.001 0 0.001v-0l-0.005 7.645c0 0 0 0 0 0 0 0.526 0.425 0.952 0.951 0.954h5.739c0.527-0.002 0.954-0.429 0.955-0.955v-5.733l-2.867-2.867zM11.962 14.612v-2.628l2.628 2.628z"></path>
</svg>
