<!-- Generated by IcoMoon.io -->
<svg version="1.1" xmlns="http://www.w3.org/2000/svg" width="28" height="32" viewBox="0 0 28 32">
<title>lock</title>
<path d="M14 16h-0.001c-2.198 0.012-3.977 1.792-3.989 3.991v0c0 2.204 1.787 3.991 3.991 3.991s3.991-1.787 3.991-3.991c0-2.204-1.787-3.991-3.991-3.991zM14 3.999c-2.199 0.013-3.978 1.792-3.991 3.989v0.001h7.99c-0.008-2.206-1.794-3.992-3.999-3.999h-0.001zM24.001 32h-20.011c-2.202-0.013-3.983-1.797-3.991-3.999v-16.001c0.013-2.199 1.792-3.978 3.989-3.991h1.996c0.075-4.361 3.628-7.868 8-7.868s7.925 3.507 8 7.861l0 0.007h1.995c2.199 0.012 3.978 1.792 3.991 3.989v16.001c-0.007 2.196-1.777 3.976-3.968 3.999l-0.002 0z"></path>
</svg>
